1 1 1
999999 999999 259
1 999999 525
2 999999 525
1 999998 525
2 999998 525
1 999 179
999 1 179
1 1000 179
1000 1 179
1 1001 179
1001 1 179
2 999 179
999 2 179
2 1000 179
1000 2 179
2 1001 179
1001 2 179
999 1999 182
1999 999 182
999 2000 182
2000 999 182
999 2001 182
2001 999 182
1000 1999 182
1999 1000 182
1000 2000 182
2000 1000 182
1000 2001 182
2001 1000 182
1001 1999 182
1999 1001 182
1001 2000 182
2000 1001 182
1001 2001 182
2001 1001 182
998998 999998 396
999998 998998 396
998998 999999 396
999999 998998 396
998999 999998 396
999998 998999 396
998999 999999 396
999999 998999 396
999000 999998 396
999998 999000 396
999000 999999 396
999999 999000 396
997998 998998 396
998998 997998 396
997998 998999 396
998999 997998 396
997998 999000 396
999000 997998 396
997999 998998 396
998998 997999 396
997999 998999 396
998999 997999 396
997999 999000 396
999000 997999 396
998000 998998 396
998998 998000 396
998000 998999 396
998999 998000 396
998000 999000 396
999000 998000 396
1 99 119
99 1 119
1 100 119
100 1 119
1 101 119
101 1 119
2 99 119
99 2 119
2 100 119
100 2 119
2 101 119
101 2 119
99 199 125
199 99 125
99 200 125
200 99 125
99 201 125
201 99 125
100 199 125
199 100 125
100 200 125
200 100 125
100 201 125
201 100 125
101 199 125
199 101 125
101 200 125
200 101 125
101 201 125
201 101 125
999898 999998 259
999998 999898 259
999898 999999 259
999999 999898 259
999899 999998 259
999998 999899 259
999899 999999 259
999999 999899 259
999900 999998 259
999998 999900 259
999900 999999 259
999999 999900 259
999798 999898 259
999898 999798 259
999798 999899 259
999899 999798 259
999798 999900 259
999900 999798 259
999799 999898 259
999898 999799 259
999799 999899 259
999899 999799 259
999799 999900 259
999900 999799 259
999800 999898 259
999898 999800 259
999800 999899 259
999899 999800 259
999800 999900 259
999900 999800 259
1 149 122
149 1 122
1 150 122
150 1 122
1 151 122
151 1 122
2 149 122
149 2 122
2 150 122
150 2 122
2 151 122
151 2 122
149 299 128
299 149 128
149 300 128
300 149 128
149 301 128
301 149 128
150 299 128
299 150 128
150 300 128
300 150 128
150 301 128
301 150 128
151 299 128
299 151 128
151 300 128
300 151 128
151 301 128
301 151 128
999848 999998 259
999998 999848 259
999848 999999 259
999999 999848 259
999849 999998 259
999998 999849 259
999849 999999 259
999999 999849 259
999850 999998 259
999998 999850 259
999850 999999 259
999999 999850 259
999698 999848 259
999848 999698 259
999698 999849 259
999849 999698 259
999698 999850 259
999850 999698 259
999699 999848 259
999848 999699 259
999699 999849 259
999849 999699 259
999699 999850 259
999850 999699 259
999700 999848 259
999848 999700 259
999700 999849 259
999849 999700 259
999700 999850 259
999850 999700 259
1 104 119
104 1 119
1 105 119
105 1 119
1 106 119
106 1 119
2 104 119
104 2 119
2 105 119
105 2 119
2 106 119
106 2 119
104 209 125
209 104 125
104 210 125
210 104 125
104 211 125
211 104 125
105 209 125
209 105 125
105 210 125
210 105 125
105 211 125
211 105 125
106 209 125
209 106 125
106 210 125
210 106 125
106 211 125
211 106 125
999893 999998 259
999998 999893 259
999893 999999 259
999999 999893 259
999894 999998 259
999998 999894 259
999894 999999 259
999999 999894 259
999895 999998 259
999998 999895 259
999895 999999 259
999999 999895 259
999788 999893 259
999893 999788 259
999788 999894 259
999894 999788 259
999788 999895 259
999895 999788 259
999789 999893 259
999893 999789 259
999789 999894 259
999894 999789 259
999789 999895 259
999895 999789 259
999790 999893 259
999893 999790 259
999790 999894 259
999894 999790 259
999790 999895 259
999895 999790 259
